%YAML 1.1
%TAG !u! tag:unity3d.com,2011:
--- !u!29 &1
OcclusionCullingSettings:
  m_ObjectHideFlags: 0
  serializedVersion: 2
  m_OcclusionBakeSettings:
    smallestOccluder: 5
    smallestHole: 0.25
    backfaceThreshold: 100
  m_SceneGUID: 00000000000000000000000000000000
  m_OcclusionCullingData: {fileID: 0}
--- !u!104 &2
RenderSettings:
  m_ObjectHideFlags: 0
  serializedVersion: 9
  m_Fog: 0
  m_FogColor: {r: 0.5, g: 0.5, b: 0.5, a: 1}
  m_FogMode: 3
  m_FogDensity: 0.01
  m_LinearFogStart: 0
  m_LinearFogEnd: 300
  m_AmbientSkyColor: {r: 0.212, g: 0.227, b: 0.259, a: 1}
  m_AmbientEquatorColor: {r: 0.114, g: 0.125, b: 0.133, a: 1}
  m_AmbientGroundColor: {r: 0.047, g: 0.043, b: 0.035, a: 1}
  m_AmbientIntensity: 1
  m_AmbientMode: 0
  m_SubtractiveShadowColor: {r: 0.42, g: 0.478, b: 0.627, a: 1}
  m_SkyboxMaterial: {fileID: 10304, guid: 0000000000000000f000000000000000, type: 0}
  m_HaloStrength: 0.5
  m_FlareStrength: 1
  m_FlareFadeSpeed: 3
  m_HaloTexture: {fileID: 0}
  m_SpotCookie: {fileID: 10001, guid: 0000000000000000e000000000000000, type: 0}
  m_DefaultReflectionMode: 0
  m_DefaultReflectionResolution: 128
  m_ReflectionBounces: 1
  m_ReflectionIntensity: 1
  m_CustomReflection: {fileID: 0}
  m_Sun: {fileID: 0}
  m_IndirectSpecularColor: {r: 0.44657898, g: 0.4964133, b: 0.5748178, a: 1}
  m_UseRadianceAmbientProbe: 0
--- !u!157 &3
LightmapSettings:
  m_ObjectHideFlags: 0
  serializedVersion: 11
  m_GIWorkflowMode: 0
  m_GISettings:
    serializedVersion: 2
    m_BounceScale: 1
    m_IndirectOutputScale: 1
    m_AlbedoBoost: 1
    m_TemporalCoherenceThreshold: 1
    m_EnvironmentLightingMode: 0
    m_EnableBakedLightmaps: 1
    m_EnableRealtimeLightmaps: 1
  m_LightmapEditorSettings:
    serializedVersion: 10
    m_Resolution: 2
    m_BakeResolution: 40
    m_AtlasSize: 1024
    m_AO: 0
    m_AOMaxDistance: 1
    m_CompAOExponent: 1
    m_CompAOExponentDirect: 0
    m_Padding: 2
    m_LightmapParameters: {fileID: 0}
    m_LightmapsBakeMode: 1
    m_TextureCompression: 1
    m_FinalGather: 0
    m_FinalGatherFiltering: 1
    m_FinalGatherRayCount: 256
    m_ReflectionCompression: 2
    m_MixedBakeMode: 1
    m_BakeBackend: 0
    m_PVRSampling: 1
    m_PVRDirectSampleCount: 32
    m_PVRSampleCount: 500
    m_PVRBounces: 2
    m_PVRFilterTypeDirect: 0
    m_PVRFilterTypeIndirect: 0
    m_PVRFilterTypeAO: 0
    m_PVRFilteringMode: 0
    m_PVRCulling: 1
    m_PVRFilteringGaussRadiusDirect: 1
    m_PVRFilteringGaussRadiusIndirect: 5
    m_PVRFilteringGaussRadiusAO: 2
    m_PVRFilteringAtrousPositionSigmaDirect: 0.5
    m_PVRFilteringAtrousPositionSigmaIndirect: 2
    m_PVRFilteringAtrousPositionSigmaAO: 1
    m_ShowResolutionOverlay: 1
  m_LightingDataAsset: {fileID: 0}
  m_UseShadowmask: 0
--- !u!196 &4
NavMeshSettings:
  serializedVersion: 2
  m_ObjectHideFlags: 0
  m_BuildSettings:
    serializedVersion: 2
    agentTypeID: 0
    agentRadius: 0.5
    agentHeight: 2
    agentSlope: 45
    agentClimb: 0.4
    ledgeDropHeight: 0
    maxJumpAcrossDistance: 0
    minRegionArea: 2
    manualCellSize: 0
    cellSize: 0.16666667
    manualTileSize: 0
    tileSize: 256
    accuratePlacement: 0
    debug:
      m_Flags: 0
  m_NavMeshData: {fileID: 0}
--- !u!1 &61970127
GameObject:
  m_ObjectHideFlags: 0
  m_PrefabParentObject: {fileID: 1529451066220406, guid: 328366602c7f9ae4aa29ecb957c7731d,
    type: 2}
  m_PrefabInternal: {fileID: 1977780366}
  serializedVersion: 5
  m_Component:
  - component: {fileID: 1977780367}
  - component: {fileID: 61970129}
  - component: {fileID: 61970128}
  m_Layer: 0
  m_Name: StarSparrow_Core
  m_TagString: Untagged
  m_Icon: {fileID: 0}
  m_NavMeshLayer: 0
  m_StaticEditorFlags: 0
  m_IsActive: 1
--- !u!23 &61970128
MeshRenderer:
  m_ObjectHideFlags: 0
  m_PrefabParentObject: {fileID: 23093788676958572, guid: 328366602c7f9ae4aa29ecb957c7731d,
    type: 2}
  m_PrefabInternal: {fileID: 1977780366}
  m_GameObject: {fileID: 61970127}
  m_Enabled: 1
  m_CastShadows: 1
  m_ReceiveShadows: 1
  m_DynamicOccludee: 1
  m_MotionVectors: 1
  m_LightProbeUsage: 1
  m_ReflectionProbeUsage: 1
  m_RenderingLayerMask: 4294967295
  m_Materials:
  - {fileID: 2100000, guid: 3574d5733ac60b941b175932e0a1aa2e, type: 2}
  m_StaticBatchInfo:
    firstSubMesh: 0
    subMeshCount: 0
  m_StaticBatchRoot: {fileID: 0}
  m_ProbeAnchor: {fileID: 0}
  m_LightProbeVolumeOverride: {fileID: 0}
  m_ScaleInLightmap: 1
  m_PreserveUVs: 0
  m_IgnoreNormalsForChartDetection: 0
  m_ImportantGI: 0
  m_StitchLightmapSeams: 0
  m_SelectedEditorRenderState: 3
  m_MinimumChartSize: 4
  m_AutoUVMaxDistance: 0.5
  m_AutoUVMaxAngle: 89
  m_LightmapParameters: {fileID: 0}
  m_SortingLayerID: 0
  m_SortingLayer: 0
  m_SortingOrder: 0
--- !u!33 &61970129
MeshFilter:
  m_ObjectHideFlags: 0
  m_PrefabParentObject: {fileID: 33743050505984958, guid: 328366602c7f9ae4aa29ecb957c7731d,
    type: 2}
  m_PrefabInternal: {fileID: 1977780366}
  m_GameObject: {fileID: 61970127}
  m_Mesh: {fileID: 4300002, guid: 71e6e8f0e9dd9164da8d88a237ed787b, type: 3}
--- !u!1 &125402115
GameObject:
  m_ObjectHideFlags: 0
  m_PrefabParentObject: {fileID: 1410886236686188, guid: 1f78031b7183f2a4498c4cfc761ca60c,
    type: 2}
  m_PrefabInternal: {fileID: 2114623959}
  serializedVersion: 5
  m_Component:
  - component: {fileID: 2114623960}
  - component: {fileID: 125402117}
  - component: {fileID: 125402116}
  m_Layer: 0
  m_Name: StarSparrow_Weapon
  m_TagString: Untagged
  m_Icon: {fileID: 0}
  m_NavMeshLayer: 0
  m_StaticEditorFlags: 0
  m_IsActive: 1
--- !u!23 &125402116
MeshRenderer:
  m_ObjectHideFlags: 0
  m_PrefabParentObject: {fileID: 23236041821171378, guid: 1f78031b7183f2a4498c4cfc761ca60c,
    type: 2}
  m_PrefabInternal: {fileID: 2114623959}
  m_GameObject: {fileID: 125402115}
  m_Enabled: 1
  m_CastShadows: 1
  m_ReceiveShadows: 1
  m_DynamicOccludee: 1
  m_MotionVectors: 1
  m_LightProbeUsage: 1
  m_ReflectionProbeUsage: 1
  m_RenderingLayerMask: 4294967295
  m_Materials:
  - {fileID: 2100000, guid: 3574d5733ac60b941b175932e0a1aa2e, type: 2}
  m_StaticBatchInfo:
    firstSubMesh: 0
    subMeshCount: 0
  m_StaticBatchRoot: {fileID: 0}
  m_ProbeAnchor: {fileID: 0}
  m_LightProbeVolumeOverride: {fileID: 0}
  m_ScaleInLightmap: 1
  m_PreserveUVs: 0
  m_IgnoreNormalsForChartDetection: 0
  m_ImportantGI: 0
  m_StitchLightmapSeams: 0
  m_SelectedEditorRenderState: 3
  m_MinimumChartSize: 4
  m_AutoUVMaxDistance: 0.5
  m_AutoUVMaxAngle: 89
  m_LightmapParameters: {fileID: 0}
  m_SortingLayerID: 0
  m_SortingLayer: 0
  m_SortingOrder: 0
--- !u!33 &125402117
MeshFilter:
  m_ObjectHideFlags: 0
  m_PrefabParentObject: {fileID: 33236451507628414, guid: 1f78031b7183f2a4498c4cfc761ca60c,
    type: 2}
  m_PrefabInternal: {fileID: 2114623959}
  m_GameObject: {fileID: 125402115}
  m_Mesh: {fileID: 4300008, guid: 71e6e8f0e9dd9164da8d88a237ed787b, type: 3}
--- !u!1001 &372754518
Prefab:
  m_ObjectHideFlags: 0
  serializedVersion: 2
  m_Modification:
    m_TransformParent: {fileID: 1012481895}
    m_Modifications:
    - target: {fileID: 4058656590580170, guid: 01b4c9caff0ad4d48ac8cb23e89e5224, type: 2}
      propertyPath: m_LocalPosition.x
      value: 0
      objectReference: {fileID: 0}
    - target: {fileID: 4058656590580170, guid: 01b4c9caff0ad4d48ac8cb23e89e5224, type: 2}
      propertyPath: m_LocalPosition.y
      value: 0
      objectReference: {fileID: 0}
    - target: {fileID: 4058656590580170, guid: 01b4c9caff0ad4d48ac8cb23e89e5224, type: 2}
      propertyPath: m_LocalPosition.z
      value: -46
      objectReference: {fileID: 0}
    - target: {fileID: 4058656590580170, guid: 01b4c9caff0ad4d48ac8cb23e89e5224, type: 2}
      propertyPath: m_LocalRotation.x
      value: 0.000000021855694
      objectReference: {fileID: 0}
    - target: {fileID: 4058656590580170, guid: 01b4c9caff0ad4d48ac8cb23e89e5224, type: 2}
      propertyPath: m_LocalRotation.y
      value: 0
      objectReference: {fileID: 0}
    - target: {fileID: 4058656590580170, guid: 01b4c9caff0ad4d48ac8cb23e89e5224, type: 2}
      propertyPath: m_LocalRotation.z
      value: -0
      objectReference: {fileID: 0}
    - target: {fileID: 4058656590580170, guid: 01b4c9caff0ad4d48ac8cb23e89e5224, type: 2}
      propertyPath: m_LocalRotation.w
      value: 1
      objectReference: {fileID: 0}
    - target: {fileID: 4058656590580170, guid: 01b4c9caff0ad4d48ac8cb23e89e5224, type: 2}
      propertyPath: m_RootOrder
      value: 1
      objectReference: {fileID: 0}
    m_RemovedComponents: []
  m_ParentPrefab: {fileID: 100100000, guid: 01b4c9caff0ad4d48ac8cb23e89e5224, type: 2}
  m_RootGameObject: {fileID: 1331978820}
  m_IsPrefabParent: 0
--- !u!4 &372754519
Transform:
  m_ObjectHideFlags: 0
  m_PrefabParentObject: {fileID: 4058656590580170, guid: 01b4c9caff0ad4d48ac8cb23e89e5224,
    type: 2}
  m_PrefabInternal: {fileID: 372754518}
  m_GameObject: {fileID: 1331978820}
  m_LocalRotation: {x: 0.000000021855694, y: 0, z: -0, w: 1}
  m_LocalPosition: {x: 0, y: 0, z: -46}
  m_LocalScale: {x: 1, y: 1, z: 1}
  m_Children: []
  m_Father: {fileID: 1012481895}
  m_RootOrder: 1
  m_LocalEulerAnglesHint: {x: 0, y: 0, z: 0}
--- !u!1 &497615739
GameObject:
  m_ObjectHideFlags: 0
  m_PrefabParentObject: {fileID: 0}
  m_PrefabInternal: {fileID: 0}
  serializedVersion: 5
  m_Component:
  - component: {fileID: 497615741}
  - component: {fileID: 497615740}
  m_Layer: 0
  m_Name: Directional Light
  m_TagString: Untagged
  m_Icon: {fileID: 0}
  m_NavMeshLayer: 0
  m_StaticEditorFlags: 0
  m_IsActive: 1
--- !u!108 &497615740
Light:
  m_ObjectHideFlags: 0
  m_PrefabParentObject: {fileID: 0}
  m_PrefabInternal: {fileID: 0}
  m_GameObject: {fileID: 497615739}
  m_Enabled: 1
  serializedVersion: 8
  m_Type: 1
  m_Color: {r: 1, g: 0.95686275, b: 0.8392157, a: 1}
  m_Intensity: 1
  m_Range: 10
  m_SpotAngle: 30
  m_CookieSize: 10
  m_Shadows:
    m_Type: 2
    m_Resolution: -1
    m_CustomResolution: -1
    m_Strength: 1
    m_Bias: 0.05
    m_NormalBias: 0.4
    m_NearPlane: 0.2
  m_Cookie: {fileID: 0}
  m_DrawHalo: 0
  m_Flare: {fileID: 0}
  m_RenderMode: 0
  m_CullingMask:
    serializedVersion: 2
    m_Bits: 4294967295
  m_Lightmapping: 4
  m_AreaSize: {x: 1, y: 1}
  m_BounceIntensity: 1
  m_ColorTemperature: 6570
  m_UseColorTemperature: 0
  m_ShadowRadius: 0
  m_ShadowAngle: 0
--- !u!4 &497615741
Transform:
  m_ObjectHideFlags: 0
  m_PrefabParentObject: {fileID: 0}
  m_PrefabInternal: {fileID: 0}
  m_GameObject: {fileID: 497615739}
  m_LocalRotation: {x: 0.40821788, y: -0.23456968, z: 0.10938163, w: 0.8754261}
  m_LocalPosition: {x: 0, y: 3, z: 0}
  m_LocalScale: {x: 1, y: 1, z: 1}
  m_Children: []
  m_Father: {fileID: 0}
  m_RootOrder: 1
  m_LocalEulerAnglesHint: {x: 50, y: -30, z: 0}
--- !u!1 &690467681
GameObject:
  m_ObjectHideFlags: 0
  m_PrefabParentObject: {fileID: 1915960469164412, guid: b30ca3097cfd8de47aa1ba38578e0c30,
    type: 2}
  m_PrefabInternal: {fileID: 1751222985}
  serializedVersion: 5
  m_Component:
  - component: {fileID: 1751222986}
  - component: {fileID: 690467683}
  - component: {fileID: 690467682}
  m_Layer: 0
  m_Name: StarSparrow_Wing_1
  m_TagString: Untagged
  m_Icon: {fileID: 0}
  m_NavMeshLayer: 0
  m_StaticEditorFlags: 0
  m_IsActive: 1
--- !u!23 &690467682
MeshRenderer:
  m_ObjectHideFlags: 0
  m_PrefabParentObject: {fileID: 23699418224357818, guid: b30ca3097cfd8de47aa1ba38578e0c30,
    type: 2}
  m_PrefabInternal: {fileID: 1751222985}
  m_GameObject: {fileID: 690467681}
  m_Enabled: 1
  m_CastShadows: 1
  m_ReceiveShadows: 1
  m_DynamicOccludee: 1
  m_MotionVectors: 1
  m_LightProbeUsage: 1
  m_ReflectionProbeUsage: 1
  m_RenderingLayerMask: 4294967295
  m_Materials:
  - {fileID: 2100000, guid: 3574d5733ac60b941b175932e0a1aa2e, type: 2}
  m_StaticBatchInfo:
    firstSubMesh: 0
    subMeshCount: 0
  m_StaticBatchRoot: {fileID: 0}
  m_ProbeAnchor: {fileID: 0}
  m_LightProbeVolumeOverride: {fileID: 0}
  m_ScaleInLightmap: 1
  m_PreserveUVs: 0
  m_IgnoreNormalsForChartDetection: 0
  m_ImportantGI: 0
  m_StitchLightmapSeams: 0
  m_SelectedEditorRenderState: 3
  m_MinimumChartSize: 4
  m_AutoUVMaxDistance: 0.5
  m_AutoUVMaxAngle: 89
  m_LightmapParameters: {fileID: 0}
  m_SortingLayerID: 0
  m_SortingLayer: 0
  m_SortingOrder: 0
--- !u!33 &690467683
MeshFilter:
  m_ObjectHideFlags: 0
  m_PrefabParentObject: {fileID: 33639990171911222, guid: b30ca3097cfd8de47aa1ba38578e0c30,
    type: 2}
  m_PrefabInternal: {fileID: 1751222985}
  m_GameObject: {fileID: 690467681}
  m_Mesh: {fileID: 4300010, guid: 71e6e8f0e9dd9164da8d88a237ed787b, type: 3}
--- !u!1 &754549727
GameObject:
  m_ObjectHideFlags: 0
  m_PrefabParentObject: {fileID: 1359822539116152, guid: dde490f5ea9b7d94d9594ec8d6435f29,
    type: 2}
  m_PrefabInternal: {fileID: 1341182066}
  serializedVersion: 5
  m_Component:
  - component: {fileID: 1341182067}
  - component: {fileID: 754549729}
  - component: {fileID: 754549728}
  m_Layer: 0
  m_Name: StarSparrow_Wing_2
  m_TagString: Untagged
  m_Icon: {fileID: 0}
  m_NavMeshLayer: 0
  m_StaticEditorFlags: 0
  m_IsActive: 1
--- !u!23 &754549728
MeshRenderer:
  m_ObjectHideFlags: 0
  m_PrefabParentObject: {fileID: 23284564444760772, guid: dde490f5ea9b7d94d9594ec8d6435f29,
    type: 2}
  m_PrefabInternal: {fileID: 1341182066}
  m_GameObject: {fileID: 754549727}
  m_Enabled: 1
  m_CastShadows: 1
  m_ReceiveShadows: 1
  m_DynamicOccludee: 1
  m_MotionVectors: 1
  m_LightProbeUsage: 1
  m_ReflectionProbeUsage: 1
  m_RenderingLayerMask: 4294967295
  m_Materials:
  - {fileID: 2100000, guid: 3574d5733ac60b941b175932e0a1aa2e, type: 2}
  m_StaticBatchInfo:
    firstSubMesh: 0
    subMeshCount: 0
  m_StaticBatchRoot: {fileID: 0}
  m_ProbeAnchor: {fileID: 0}
  m_LightProbeVolumeOverride: {fileID: 0}
  m_ScaleInLightmap: 1
  m_PreserveUVs: 0
  m_IgnoreNormalsForChartDetection: 0
  m_ImportantGI: 0
  m_StitchLightmapSeams: 0
  m_SelectedEditorRenderState: 3
  m_MinimumChartSize: 4
  m_AutoUVMaxDistance: 0.5
  m_AutoUVMaxAngle: 89
  m_LightmapParameters: {fileID: 0}
  m_SortingLayerID: 0
  m_SortingLayer: 0
  m_SortingOrder: 0
--- !u!33 &754549729
MeshFilter:
  m_ObjectHideFlags: 0
  m_PrefabParentObject: {fileID: 33213561847940146, guid: dde490f5ea9b7d94d9594ec8d6435f29,
    type: 2}
  m_PrefabInternal: {fileID: 1341182066}
  m_GameObject: {fileID: 754549727}
  m_Mesh: {fileID: 4300012, guid: 71e6e8f0e9dd9164da8d88a237ed787b, type: 3}
--- !u!1 &946905041
GameObject:
  m_ObjectHideFlags: 0
  m_PrefabParentObject: {fileID: 1458252132171334, guid: 53643d8f33e9df94ba733d00e1c6d10c,
    type: 2}
  m_PrefabInternal: {fileID: 2048385230}
  serializedVersion: 5
  m_Component:
  - component: {fileID: 2048385231}
  - component: {fileID: 946905043}
  - component: {fileID: 946905042}
  m_Layer: 0
  m_Name: StarSparrow_Wing_3
  m_TagString: Untagged
  m_Icon: {fileID: 0}
  m_NavMeshLayer: 0
  m_StaticEditorFlags: 0
  m_IsActive: 1
--- !u!23 &946905042
MeshRenderer:
  m_ObjectHideFlags: 0
  m_PrefabParentObject: {fileID: 23018416816525530, guid: 53643d8f33e9df94ba733d00e1c6d10c,
    type: 2}
  m_PrefabInternal: {fileID: 2048385230}
  m_GameObject: {fileID: 946905041}
  m_Enabled: 1
  m_CastShadows: 1
  m_ReceiveShadows: 1
  m_DynamicOccludee: 1
  m_MotionVectors: 1
  m_LightProbeUsage: 1
  m_ReflectionProbeUsage: 1
  m_RenderingLayerMask: 4294967295
  m_Materials:
  - {fileID: 2100000, guid: 3574d5733ac60b941b175932e0a1aa2e, type: 2}
  m_StaticBatchInfo:
    firstSubMesh: 0
    subMeshCount: 0
  m_StaticBatchRoot: {fileID: 0}
  m_ProbeAnchor: {fileID: 0}
  m_LightProbeVolumeOverride: {fileID: 0}
  m_ScaleInLightmap: 1
  m_PreserveUVs: 0
  m_IgnoreNormalsForChartDetection: 0
  m_ImportantGI: 0
  m_StitchLightmapSeams: 0
  m_SelectedEditorRenderState: 3
  m_MinimumChartSize: 4
  m_AutoUVMaxDistance: 0.5
  m_AutoUVMaxAngle: 89
  m_LightmapParameters: {fileID: 0}
  m_SortingLayerID: 0
  m_SortingLayer: 0
  m_SortingOrder: 0
--- !u!33 &946905043
MeshFilter:
  m_ObjectHideFlags: 0
  m_PrefabParentObject: {fileID: 33385667938115720, guid: 53643d8f33e9df94ba733d00e1c6d10c,
    type: 2}
  m_PrefabInternal: {fileID: 2048385230}
  m_GameObject: {fileID: 946905041}
  m_Mesh: {fileID: 4300014, guid: 71e6e8f0e9dd9164da8d88a237ed787b, type: 3}
--- !u!1 &994833706
GameObject:
  m_ObjectHideFlags: 0
  m_PrefabParentObject: {fileID: 1831178848946964, guid: 2d009ca22ab0fc141ade283e835e506a,
    type: 2}
  m_PrefabInternal: {fileID: 996017992}
  serializedVersion: 5
  m_Component:
  - component: {fileID: 996017993}
  - component: {fileID: 994833708}
  - component: {fileID: 994833707}
  m_Layer: 0
  m_Name: StarSparrow_Thruster
  m_TagString: Untagged
  m_Icon: {fileID: 0}
  m_NavMeshLayer: 0
  m_StaticEditorFlags: 0
  m_IsActive: 1
--- !u!23 &994833707
MeshRenderer:
  m_ObjectHideFlags: 0
  m_PrefabParentObject: {fileID: 23802301117246264, guid: 2d009ca22ab0fc141ade283e835e506a,
    type: 2}
  m_PrefabInternal: {fileID: 996017992}
  m_GameObject: {fileID: 994833706}
  m_Enabled: 1
  m_CastShadows: 1
  m_ReceiveShadows: 1
  m_DynamicOccludee: 1
  m_MotionVectors: 1
  m_LightProbeUsage: 1
  m_ReflectionProbeUsage: 1
  m_RenderingLayerMask: 4294967295
  m_Materials:
  - {fileID: 2100000, guid: 3574d5733ac60b941b175932e0a1aa2e, type: 2}
  m_StaticBatchInfo:
    firstSubMesh: 0
    subMeshCount: 0
  m_StaticBatchRoot: {fileID: 0}
  m_ProbeAnchor: {fileID: 0}
  m_LightProbeVolumeOverride: {fileID: 0}
  m_ScaleInLightmap: 1
  m_PreserveUVs: 0
  m_IgnoreNormalsForChartDetection: 0
  m_ImportantGI: 0
  m_StitchLightmapSeams: 0
  m_SelectedEditorRenderState: 3
  m_MinimumChartSize: 4
  m_AutoUVMaxDistance: 0.5
  m_AutoUVMaxAngle: 89
  m_LightmapParameters: {fileID: 0}
  m_SortingLayerID: 0
  m_SortingLayer: 0
  m_SortingOrder: 0
--- !u!33 &994833708
MeshFilter:
  m_ObjectHideFlags: 0
  m_PrefabParentObject: {fileID: 33466441331335664, guid: 2d009ca22ab0fc141ade283e835e506a,
    type: 2}
  m_PrefabInternal: {fileID: 996017992}
  m_GameObject: {fileID: 994833706}
  m_Mesh: {fileID: 4300006, guid: 71e6e8f0e9dd9164da8d88a237ed787b, type: 3}
--- !u!1001 &996017992
Prefab:
  m_ObjectHideFlags: 0
  serializedVersion: 2
  m_Modification:
    m_TransformParent: {fileID: 1012481895}
    m_Modifications:
    - target: {fileID: 4599996664231796, guid: 2d009ca22ab0fc141ade283e835e506a, type: 2}
      propertyPath: m_LocalPosition.x
      value: 0
      objectReference: {fileID: 0}
    - target: {fileID: 4599996664231796, guid: 2d009ca22ab0fc141ade283e835e506a, type: 2}
      propertyPath: m_LocalPosition.y
      value: 0
      objectReference: {fileID: 0}
    - target: {fileID: 4599996664231796, guid: 2d009ca22ab0fc141ade283e835e506a, type: 2}
      propertyPath: m_LocalPosition.z
      value: -50
      objectReference: {fileID: 0}
    - target: {fileID: 4599996664231796, guid: 2d009ca22ab0fc141ade283e835e506a, type: 2}
      propertyPath: m_LocalRotation.x
      value: 0.000000021855694
      objectReference: {fileID: 0}
    - target: {fileID: 4599996664231796, guid: 2d009ca22ab0fc141ade283e835e506a, type: 2}
      propertyPath: m_LocalRotation.y
      value: 0
      objectReference: {fileID: 0}
    - target: {fileID: 4599996664231796, guid: 2d009ca22ab0fc141ade283e835e506a, type: 2}
      propertyPath: m_LocalRotation.z
      value: -0
      objectReference: {fileID: 0}
    - target: {fileID: 4599996664231796, guid: 2d009ca22ab0fc141ade283e835e506a, type: 2}
      propertyPath: m_LocalRotation.w
      value: 1
      objectReference: {fileID: 0}
    - target: {fileID: 4599996664231796, guid: 2d009ca22ab0fc141ade283e835e506a, type: 2}
      propertyPath: m_RootOrder
      value: 3
      objectReference: {fileID: 0}
    m_RemovedComponents: []
  m_ParentPrefab: {fileID: 100100000, guid: 2d009ca22ab0fc141ade283e835e506a, type: 2}
  m_RootGameObject: {fileID: 994833706}
  m_IsPrefabParent: 0
--- !u!4 &996017993
Transform:
  m_ObjectHideFlags: 0
  m_PrefabParentObject: {fileID: 4599996664231796, guid: 2d009ca22ab0fc141ade283e835e506a,
    type: 2}
  m_PrefabInternal: {fileID: 996017992}
  m_GameObject: {fileID: 994833706}
  m_LocalRotation: {x: 0.000000021855694, y: 0, z: -0, w: 1}
  m_LocalPosition: {x: 0, y: 0, z: -50}
  m_LocalScale: {x: 1, y: 1, z: 1}
  m_Children: []
  m_Father: {fileID: 1012481895}
  m_RootOrder: 3
  m_LocalEulerAnglesHint: {x: 0, y: 0, z: 0}
--- !u!1 &1012481894
GameObject:
  m_ObjectHideFlags: 0
  m_PrefabParentObject: {fileID: 100016, guid: 71e6e8f0e9dd9164da8d88a237ed787b, type: 3}
  m_PrefabInternal: {fileID: 0}
  serializedVersion: 5
  m_Component:
  - component: {fileID: 1012481895}
  m_Layer: 0
  m_Name: StarSparrowModules
  m_TagString: Untagged
  m_Icon: {fileID: 0}
  m_NavMeshLayer: 0
  m_StaticEditorFlags: 0
  m_IsActive: 1
--- !u!4 &1012481895
Transform:
  m_ObjectHideFlags: 0
  m_PrefabParentObject: {fileID: 400016, guid: 71e6e8f0e9dd9164da8d88a237ed787b, type: 3}
  m_PrefabInternal: {fileID: 0}
  m_GameObject: {fileID: 1012481894}
  m_LocalRotation: {x: 0, y: 0, z: 0, w: 1}
  m_LocalPosition: {x: 0, y: 0, z: 0}
  m_LocalScale: {x: 1, y: 1, z: 1}
  m_Children:
  - {fileID: 1977780367}
  - {fileID: 372754519}
  - {fileID: 1919165202}
  - {fileID: 996017993}
  - {fileID: 2114623960}
  - {fileID: 1751222986}
  - {fileID: 1341182067}
  - {fileID: 2048385231}
  m_Father: {fileID: 0}
  m_RootOrder: 2
  m_LocalEulerAnglesHint: {x: 0, y: 0, z: 0}
--- !u!1 &1331978820
GameObject:
  m_ObjectHideFlags: 0
  m_PrefabParentObject: {fileID: 1578214912242710, guid: 01b4c9caff0ad4d48ac8cb23e89e5224,
    type: 2}
  m_PrefabInternal: {fileID: 372754518}
  serializedVersion: 5
  m_Component:
  - component: {fileID: 372754519}
  - component: {fileID: 1331978822}
  - component: {fileID: 1331978821}
  m_Layer: 0
  m_Name: StarSparrow_Engine
  m_TagString: Untagged
  m_Icon: {fileID: 0}
  m_NavMeshLayer: 0
  m_StaticEditorFlags: 0
  m_IsActive: 1
--- !u!23 &1331978821
MeshRenderer:
  m_ObjectHideFlags: 0
  m_PrefabParentObject: {fileID: 23120691525612960, guid: 01b4c9caff0ad4d48ac8cb23e89e5224,
    type: 2}
  m_PrefabInternal: {fileID: 372754518}
  m_GameObject: {fileID: 1331978820}
  m_Enabled: 1
  m_CastShadows: 1
  m_ReceiveShadows: 1
  m_DynamicOccludee: 1
  m_MotionVectors: 1
  m_LightProbeUsage: 1
  m_ReflectionProbeUsage: 1
  m_RenderingLayerMask: 4294967295
  m_Materials:
  - {fileID: 2100000, guid: 3574d5733ac60b941b175932e0a1aa2e, type: 2}
  m_StaticBatchInfo:
    firstSubMesh: 0
    subMeshCount: 0
  m_StaticBatchRoot: {fileID: 0}
  m_ProbeAnchor: {fileID: 0}
  m_LightProbeVolumeOverride: {fileID: 0}
  m_ScaleInLightmap: 1
  m_PreserveUVs: 0
  m_IgnoreNormalsForChartDetection: 0
  m_ImportantGI: 0
  m_StitchLightmapSeams: 0
  m_SelectedEditorRenderState: 3
  m_MinimumChartSize: 4
  m_AutoUVMaxDistance: 0.5
  m_AutoUVMaxAngle: 89
  m_LightmapParameters: {fileID: 0}
  m_SortingLayerID: 0
  m_SortingLayer: 0
  m_SortingOrder: 0
--- !u!33 &1331978822
MeshFilter:
  m_ObjectHideFlags: 0
  m_PrefabParentObject: {fileID: 33530143593761724, guid: 01b4c9caff0ad4d48ac8cb23e89e5224,
    type: 2}
  m_PrefabInternal: {fileID: 372754518}
  m_GameObject: {fileID: 1331978820}
  m_Mesh: {fileID: 4300004, guid: 71e6e8f0e9dd9164da8d88a237ed787b, type: 3}
--- !u!1001 &1341182066
Prefab:
  m_ObjectHideFlags: 0
  serializedVersion: 2
  m_Modification:
    m_TransformParent: {fileID: 1012481895}
    m_Modifications:
    - target: {fileID: 4267922041907092, guid: dde490f5ea9b7d94d9594ec8d6435f29, type: 2}
      propertyPath: m_LocalPosition.x
      value: 0
      objectReference: {fileID: 0}
    - target: {fileID: 4267922041907092, guid: dde490f5ea9b7d94d9594ec8d6435f29, type: 2}
      propertyPath: m_LocalPosition.y
      value: 0
      objectReference: {fileID: 0}
    - target: {fileID: 4267922041907092, guid: dde490f5ea9b7d94d9594ec8d6435f29, type: 2}
      propertyPath: m_LocalPosition.z
      value: -27
      objectReference: {fileID: 0}
    - target: {fileID: 4267922041907092, guid: dde490f5ea9b7d94d9594ec8d6435f29, type: 2}
      propertyPath: m_LocalRotation.x
      value: 0.000000021855694
      objectReference: {fileID: 0}
    - target: {fileID: 4267922041907092, guid: dde490f5ea9b7d94d9594ec8d6435f29, type: 2}
      propertyPath: m_LocalRotation.y
      value: 0
      objectReference: {fileID: 0}
    - target: {fileID: 4267922041907092, guid: dde490f5ea9b7d94d9594ec8d6435f29, type: 2}
      propertyPath: m_LocalRotation.z
      value: -0
      objectReference: {fileID: 0}
    - target: {fileID: 4267922041907092, guid: dde490f5ea9b7d94d9594ec8d6435f29, type: 2}
      propertyPath: m_LocalRotation.w
      value: 1
      objectReference: {fileID: 0}
    - target: {fileID: 4267922041907092, guid: dde490f5ea9b7d94d9594ec8d6435f29, type: 2}
      propertyPath: m_RootOrder
      value: 6
      objectReference: {fileID: 0}
    m_RemovedComponents: []
  m_ParentPrefab: {fileID: 100100000, guid: dde490f5ea9b7d94d9594ec8d6435f29, type: 2}
  m_RootGameObject: {fileID: 754549727}
  m_IsPrefabParent: 0
--- !u!4 &1341182067
Transform:
  m_ObjectHideFlags: 0
  m_PrefabParentObject: {fileID: 4267922041907092, guid: dde490f5ea9b7d94d9594ec8d6435f29,
    type: 2}
  m_PrefabInternal: {fileID: 1341182066}
  m_GameObject: {fileID: 754549727}
  m_LocalRotation: {x: 0.000000021855694, y: 0, z: -0, w: 1}
  m_LocalPosition: {x: 0, y: 0, z: -27}
  m_LocalScale: {x: 1, y: 1, z: 1}
  m_Children: []
  m_Father: {fileID: 1012481895}
  m_RootOrder: 6
  m_LocalEulerAnglesHint: {x: 0, y: 0, z: 0}
--- !u!1 &1540124391
GameObject:
  m_ObjectHideFlags: 0
  m_PrefabParentObject: {fileID: 1029438857237082, guid: 157f084336ed05c45947433542a2eba2,
    type: 2}
  m_PrefabInternal: {fileID: 1919165201}
  serializedVersion: 5
  m_Component:
  - component: {fileID: 1919165202}
  - component: {fileID: 1540124393}
  - component: {fileID: 1540124392}
  m_Layer: 0
  m_Name: StarSparrow_Plasma
  m_TagString: Untagged
  m_Icon: {fileID: 0}
  m_NavMeshLayer: 0
  m_StaticEditorFlags: 0
  m_IsActive: 1
--- !u!23 &1540124392
MeshRenderer:
  m_ObjectHideFlags: 0
  m_PrefabParentObject: {fileID: 23914625343201758, guid: 157f084336ed05c45947433542a2eba2,
    type: 2}
  m_PrefabInternal: {fileID: 1919165201}
  m_GameObject: {fileID: 1540124391}
  m_Enabled: 1
  m_CastShadows: 1
  m_ReceiveShadows: 1
  m_DynamicOccludee: 1
  m_MotionVectors: 1
  m_LightProbeUsage: 1
  m_ReflectionProbeUsage: 1
  m_RenderingLayerMask: 4294967295
  m_Materials:
  - {fileID: 2100000, guid: 3574d5733ac60b941b175932e0a1aa2e, type: 2}
  m_StaticBatchInfo:
    firstSubMesh: 0
    subMeshCount: 0
  m_StaticBatchRoot: {fileID: 0}
  m_ProbeAnchor: {fileID: 0}
  m_LightProbeVolumeOverride: {fileID: 0}
  m_ScaleInLightmap: 1
  m_PreserveUVs: 0
  m_IgnoreNormalsForChartDetection: 0
  m_ImportantGI: 0
  m_StitchLightmapSeams: 0
  m_SelectedEditorRenderState: 3
  m_MinimumChartSize: 4
  m_AutoUVMaxDistance: 0.5
  m_AutoUVMaxAngle: 89
  m_LightmapParameters: {fileID: 0}
  m_SortingLayerID: 0
  m_SortingLayer: 0
  m_SortingOrder: 0
--- !u!33 &1540124393
MeshFilter:
  m_ObjectHideFlags: 0
  m_PrefabParentObject: {fileID: 33730868122859558, guid: 157f084336ed05c45947433542a2eba2,
    type: 2}
  m_PrefabInternal: {fileID: 1919165201}
  m_GameObject: {fileID: 1540124391}
  m_Mesh: {fileID: 4300000, guid: 71e6e8f0e9dd9164da8d88a237ed787b, type: 3}
--- !u!1001 &1751222985
Prefab:
  m_ObjectHideFlags: 0
  serializedVersion: 2
  m_Modification:
    m_TransformParent: {fileID: 1012481895}
    m_Modifications:
    - target: {fileID: 4516822772814898, guid: b30ca3097cfd8de47aa1ba38578e0c30, type: 2}
      propertyPath: m_LocalPosition.x
      value: 0
      objectReference: {fileID: 0}
    - target: {fileID: 4516822772814898, guid: b30ca3097cfd8de47aa1ba38578e0c30, type: 2}
      propertyPath: m_LocalPosition.y
      value: 0
      objectReference: {fileID: 0}
    - target: {fileID: 4516822772814898, guid: b30ca3097cfd8de47aa1ba38578e0c30, type: 2}
      propertyPath: m_LocalPosition.z
      value: -38
      objectReference: {fileID: 0}
    - target: {fileID: 4516822772814898, guid: b30ca3097cfd8de47aa1ba38578e0c30, type: 2}
      propertyPath: m_LocalRotation.x
      value: 0.000000021855694
      objectReference: {fileID: 0}
    - target: {fileID: 4516822772814898, guid: b30ca3097cfd8de47aa1ba38578e0c30, type: 2}
      propertyPath: m_LocalRotation.y
      value: 0
      objectReference: {fileID: 0}
    - target: {fileID: 4516822772814898, guid: b30ca3097cfd8de47aa1ba38578e0c30, type: 2}
      propertyPath: m_LocalRotation.z
      value: -0
      objectReference: {fileID: 0}
    - target: {fileID: 4516822772814898, guid: b30ca3097cfd8de47aa1ba38578e0c30, type: 2}
      propertyPath: m_LocalRotation.w
      value: 1
      objectReference: {fileID: 0}
    - target: {fileID: 4516822772814898, guid: b30ca3097cfd8de47aa1ba38578e0c30, type: 2}
      propertyPath: m_RootOrder
      value: 5
      objectReference: {fileID: 0}
    m_RemovedComponents: []
  m_ParentPrefab: {fileID: 100100000, guid: b30ca3097cfd8de47aa1ba38578e0c30, type: 2}
  m_RootGameObject: {fileID: 690467681}
  m_IsPrefabParent: 0
--- !u!4 &1751222986
Transform:
  m_ObjectHideFlags: 0
  m_PrefabParentObject: {fileID: 4516822772814898, guid: b30ca3097cfd8de47aa1ba38578e0c30,
    type: 2}
  m_PrefabInternal: {fileID: 1751222985}
  m_GameObject: {fileID: 690467681}
  m_LocalRotation: {x: 0.000000021855694, y: 0, z: -0, w: 1}
  m_LocalPosition: {x: 0, y: 0, z: -38}
  m_LocalScale: {x: 1, y: 1, z: 1}
  m_Children: []
  m_Father: {fileID: 1012481895}
  m_RootOrder: 5
  m_LocalEulerAnglesHint: {x: 0, y: 0, z: 0}
--- !u!1 &1828872409
GameObject:
  m_ObjectHideFlags: 0
  m_PrefabParentObject: {fileID: 0}
  m_PrefabInternal: {fileID: 0}
  serializedVersion: 5
  m_Component:
  - component: {fileID: 1828872414}
  - component: {fileID: 1828872413}
  - component: {fileID: 1828872412}
  - component: {fileID: 1828872411}
  - component: {fileID: 1828872410}
  m_Layer: 0
  m_Name: Main Camera
  m_TagString: MainCamera
  m_Icon: {fileID: 0}
  m_NavMeshLayer: 0
  m_StaticEditorFlags: 0
  m_IsActive: 1
--- !u!81 &1828872410
AudioListener:
  m_ObjectHideFlags: 0
  m_PrefabParentObject: {fileID: 0}
  m_PrefabInternal: {fileID: 0}
  m_GameObject: {fileID: 1828872409}
  m_Enabled: 1
--- !u!124 &1828872411
Behaviour:
  m_ObjectHideFlags: 0
  m_PrefabParentObject: {fileID: 0}
  m_PrefabInternal: {fileID: 0}
  m_GameObject: {fileID: 1828872409}
  m_Enabled: 1
--- !u!92 &1828872412
Behaviour:
  m_ObjectHideFlags: 0
  m_PrefabParentObject: {fileID: 0}
  m_PrefabInternal: {fileID: 0}
  m_GameObject: {fileID: 1828872409}
  m_Enabled: 1
--- !u!20 &1828872413
Camera:
  m_ObjectHideFlags: 0
  m_PrefabParentObject: {fileID: 0}
  m_PrefabInternal: {fileID: 0}
  m_GameObject: {fileID: 1828872409}
  m_Enabled: 1
  serializedVersion: 2
  m_ClearFlags: 1
  m_BackGroundColor: {r: 0.19215687, g: 0.3019608, b: 0.4745098, a: 0}
  m_NormalizedViewPortRect:
    serializedVersion: 2
    x: 0
    y: 0
    width: 1
    height: 1
  near clip plane: 0.3
  far clip plane: 1000
  field of view: 60
  orthographic: 0
  orthographic size: 5
  m_Depth: -1
  m_CullingMask:
    serializedVersion: 2
    m_Bits: 4294967295
  m_RenderingPath: -1
  m_TargetTexture: {fileID: 0}
  m_TargetDisplay: 0
  m_TargetEye: 3
  m_HDR: 0
  m_AllowMSAA: 1
  m_AllowDynamicResolution: 0
  m_ForceIntoRT: 0
  m_OcclusionCulling: 1
  m_StereoConvergence: 10
  m_StereoSeparation: 0.022
--- !u!4 &1828872414
Transform:
  m_ObjectHideFlags: 0
  m_PrefabParentObject: {fileID: 0}
  m_PrefabInternal: {fileID: 0}
  m_GameObject: {fileID: 1828872409}
  m_LocalRotation: {x: 0, y: 0, z: 0, w: 1}
  m_LocalPosition: {x: 0, y: 1, z: -10}
  m_LocalScale: {x: 1, y: 1, z: 1}
  m_Children: []
  m_Father: {fileID: 0}
  m_RootOrder: 0
  m_LocalEulerAnglesHint: {x: 0, y: 0, z: 0}
--- !u!1001 &1919165201
Prefab:
  m_ObjectHideFlags: 0
  serializedVersion: 2
  m_Modification:
    m_TransformParent: {fileID: 1012481895}
    m_Modifications:
    - target: {fileID: 4038124104658566, guid: 157f084336ed05c45947433542a2eba2, type: 2}
      propertyPath: m_LocalPosition.x
      value: 0
      objectReference: {fileID: 0}
    - target: {fileID: 4038124104658566, guid: 157f084336ed05c45947433542a2eba2, type: 2}
      propertyPath: m_LocalPosition.y
      value: 0
      objectReference: {fileID: 0}
    - target: {fileID: 4038124104658566, guid: 157f084336ed05c45947433542a2eba2, type: 2}
      propertyPath: m_LocalPosition.z
      value: -8
      objectReference: {fileID: 0}
    - target: {fileID: 4038124104658566, guid: 157f084336ed05c45947433542a2eba2, type: 2}
      propertyPath: m_LocalRotation.x
      value: 0.000000021855694
      objectReference: {fileID: 0}
    - target: {fileID: 4038124104658566, guid: 157f084336ed05c45947433542a2eba2, type: 2}
      propertyPath: m_LocalRotation.y
      value: 0
      objectReference: {fileID: 0}
    - target: {fileID: 4038124104658566, guid: 157f084336ed05c45947433542a2eba2, type: 2}
      propertyPath: m_LocalRotation.z
      value: -0
      objectReference: {fileID: 0}
    - target: {fileID: 4038124104658566, guid: 157f084336ed05c45947433542a2eba2, type: 2}
      propertyPath: m_LocalRotation.w
      value: 1
      objectReference: {fileID: 0}
    - target: {fileID: 4038124104658566, guid: 157f084336ed05c45947433542a2eba2, type: 2}
      propertyPath: m_RootOrder
      value: 2
      objectReference: {fileID: 0}
    m_RemovedComponents: []
  m_ParentPrefab: {fileID: 100100000, guid: 157f084336ed05c45947433542a2eba2, type: 2}
  m_RootGameObject: {fileID: 1540124391}
  m_IsPrefabParent: 0
--- !u!4 &1919165202
Transform:
  m_ObjectHideFlags: 0
  m_PrefabParentObject: {fileID: 4038124104658566, guid: 157f084336ed05c45947433542a2eba2,
    type: 2}
  m_PrefabInternal: {fileID: 1919165201}
  m_GameObject: {fileID: 1540124391}
  m_LocalRotation: {x: 0.000000021855694, y: 0, z: -0, w: 1}
  m_LocalPosition: {x: 0, y: 0, z: -8}
  m_LocalScale: {x: 1, y: 1, z: 1}
  m_Children: []
  m_Father: {fileID: 1012481895}
  m_RootOrder: 2
  m_LocalEulerAnglesHint: {x: 0, y: 0, z: 0}
--- !u!1001 &1977780366
Prefab:
  m_ObjectHideFlags: 0
  serializedVersion: 2
  m_Modification:
    m_TransformParent: {fileID: 1012481895}
    m_Modifications:
    - target: {fileID: 4995764297852964, guid: 328366602c7f9ae4aa29ecb957c7731d, type: 2}
      propertyPath: m_LocalPosition.x
      value: 0
      objectReference: {fileID: 0}
    - target: {fileID: 4995764297852964, guid: 328366602c7f9ae4aa29ecb957c7731d, type: 2}
      propertyPath: m_LocalPosition.y
      value: 0
      objectReference: {fileID: 0}
    - target: {fileID: 4995764297852964, guid: 328366602c7f9ae4aa29ecb957c7731d, type: 2}
      propertyPath: m_LocalPosition.z
      value: -18
      objectReference: {fileID: 0}
    - target: {fileID: 4995764297852964, guid: 328366602c7f9ae4aa29ecb957c7731d, type: 2}
      propertyPath: m_LocalRotation.x
      value: 0.000000021855694
      objectReference: {fileID: 0}
    - target: {fileID: 4995764297852964, guid: 328366602c7f9ae4aa29ecb957c7731d, type: 2}
      propertyPath: m_LocalRotation.y
      value: 0
      objectReference: {fileID: 0}
    - target: {fileID: 4995764297852964, guid: 328366602c7f9ae4aa29ecb957c7731d, type: 2}
      propertyPath: m_LocalRotation.z
      value: -0
      objectReference: {fileID: 0}
    - target: {fileID: 4995764297852964, guid: 328366602c7f9ae4aa29ecb957c7731d, type: 2}
      propertyPath: m_LocalRotation.w
      value: 1
      objectReference: {fileID: 0}
    - target: {fileID: 4995764297852964, guid: 328366602c7f9ae4aa29ecb957c7731d, type: 2}
      propertyPath: m_RootOrder
      value: 0
      objectReference: {fileID: 0}
    m_RemovedComponents: []
  m_ParentPrefab: {fileID: 100100000, guid: 328366602c7f9ae4aa29ecb957c7731d, type: 2}
  m_RootGameObject: {fileID: 61970127}
  m_IsPrefabParent: 0
--- !u!4 &1977780367
Transform:
  m_ObjectHideFlags: 0
  m_PrefabParentObject: {fileID: 4995764297852964, guid: 328366602c7f9ae4aa29ecb957c7731d,
    type: 2}
  m_PrefabInternal: {fileID: 1977780366}
  m_GameObject: {fileID: 61970127}
  m_LocalRotation: {x: 0.000000021855694, y: 0, z: -0, w: 1}
  m_LocalPosition: {x: 0, y: 0, z: -18}
  m_LocalScale: {x: 1, y: 1, z: 1}
  m_Children: []
  m_Father: {fileID: 1012481895}
  m_RootOrder: 0
  m_LocalEulerAnglesHint: {x: 0, y: 0, z: 0}
--- !u!1001 &2048385230
Prefab:
  m_ObjectHideFlags: 0
  serializedVersion: 2
  m_Modification:
    m_TransformParent: {fileID: 1012481895}
    m_Modifications:
    - target: {fileID: 4395913410899158, guid: 53643d8f33e9df94ba733d00e1c6d10c, type: 2}
      propertyPath: m_LocalPosition.x
      value: 0
      objectReference: {fileID: 0}
    - target: {fileID: 4395913410899158, guid: 53643d8f33e9df94ba733d00e1c6d10c, type: 2}
      propertyPath: m_LocalPosition.y
      value: 0
      objectReference: {fileID: 0}
    - target: {fileID: 4395913410899158, guid: 53643d8f33e9df94ba733d00e1c6d10c, type: 2}
      propertyPath: m_LocalPosition.z
      value: -31
      objectReference: {fileID: 0}
    - target: {fileID: 4395913410899158, guid: 53643d8f33e9df94ba733d00e1c6d10c, type: 2}
      propertyPath: m_LocalRotation.x
      value: 0.000000021855694
      objectReference: {fileID: 0}
    - target: {fileID: 4395913410899158, guid: 53643d8f33e9df94ba733d00e1c6d10c, type: 2}
      propertyPath: m_LocalRotation.y
      value: 0
      objectReference: {fileID: 0}
    - target: {fileID: 4395913410899158, guid: 53643d8f33e9df94ba733d00e1c6d10c, type: 2}
      propertyPath: m_LocalRotation.z
      value: -0
      objectReference: {fileID: 0}
    - target: {fileID: 4395913410899158, guid: 53643d8f33e9df94ba733d00e1c6d10c, type: 2}
      propertyPath: m_LocalRotation.w
      value: 1
      objectReference: {fileID: 0}
    - target: {fileID: 4395913410899158, guid: 53643d8f33e9df94ba733d00e1c6d10c, type: 2}
      propertyPath: m_RootOrder
      value: 7
      objectReference: {fileID: 0}
    m_RemovedComponents: []
  m_ParentPrefab: {fileID: 100100000, guid: 53643d8f33e9df94ba733d00e1c6d10c, type: 2}
  m_RootGameObject: {fileID: 946905041}
  m_IsPrefabParent: 0
--- !u!4 &2048385231
Transform:
  m_ObjectHideFlags: 0
  m_PrefabParentObject: {fileID: 4395913410899158, guid: 53643d8f33e9df94ba733d00e1c6d10c,
    type: 2}
  m_PrefabInternal: {fileID: 2048385230}
  m_GameObject: {fileID: 946905041}
  m_LocalRotation: {x: 0.000000021855694, y: 0, z: -0, w: 1}
  m_LocalPosition: {x: 0, y: 0, z: -31}
  m_LocalScale: {x: 1, y: 1, z: 1}
  m_Children: []
  m_Father: {fileID: 1012481895}
  m_RootOrder: 7
  m_LocalEulerAnglesHint: {x: 0, y: 0, z: 0}
--- !u!1001 &2114623959
Prefab:
  m_ObjectHideFlags: 0
  serializedVersion: 2
  m_Modification:
    m_TransformParent: {fileID: 1012481895}
    m_Modifications:
    - target: {fileID: 4466112610345530, guid: 1f78031b7183f2a4498c4cfc761ca60c, type: 2}
      propertyPath: m_LocalPosition.x
      value: 0
      objectReference: {fileID: 0}
    - target: {fileID: 4466112610345530, guid: 1f78031b7183f2a4498c4cfc761ca60c, type: 2}
      propertyPath: m_LocalPosition.y
      value: 0
      objectReference: {fileID: 0}
    - target: {fileID: 4466112610345530, guid: 1f78031b7183f2a4498c4cfc761ca60c, type: 2}
      propertyPath: m_LocalPosition.z
      value: 0
      objectReference: {fileID: 0}
    - target: {fileID: 4466112610345530, guid: 1f78031b7183f2a4498c4cfc761ca60c, type: 2}
      propertyPath: m_LocalRotation.x
      value: 0.000000021855694
      objectReference: {fileID: 0}
    - target: {fileID: 4466112610345530, guid: 1f78031b7183f2a4498c4cfc761ca60c, type: 2}
      propertyPath: m_LocalRotation.y
      value: 0
      objectReference: {fileID: 0}
    - target: {fileID: 4466112610345530, guid: 1f78031b7183f2a4498c4cfc761ca60c, type: 2}
      propertyPath: m_LocalRotation.z
      value: -0
      objectReference: {fileID: 0}
    - target: {fileID: 4466112610345530, guid: 1f78031b7183f2a4498c4cfc761ca60c, type: 2}
      propertyPath: m_LocalRotation.w
      value: 1
      objectReference: {fileID: 0}
    - target: {fileID: 4466112610345530, guid: 1f78031b7183f2a4498c4cfc761ca60c, type: 2}
      propertyPath: m_RootOrder
      value: 4
      objectReference: {fileID: 0}
    m_RemovedComponents: []
  m_ParentPrefab: {fileID: 100100000, guid: 1f78031b7183f2a4498c4cfc761ca60c, type: 2}
  m_RootGameObject: {fileID: 125402115}
  m_IsPrefabParent: 0
--- !u!4 &2114623960
Transform:
  m_ObjectHideFlags: 0
  m_PrefabParentObject: {fileID: 4466112610345530, guid: 1f78031b7183f2a4498c4cfc761ca60c,
    type: 2}
  m_PrefabInternal: {fileID: 2114623959}
  m_GameObject: {fileID: 125402115}
  m_LocalRotation: {x: 0.000000021855694, y: 0, z: -0, w: 1}
  m_LocalPosition: {x: 0, y: 0, z: 0}
  m_LocalScale: {x: 1, y: 1, z: 1}
  m_Children: []
  m_Father: {fileID: 1012481895}
  m_RootOrder: 4
  m_LocalEulerAnglesHint: {x: 0, y: 0, z: 0}
